0.65612 0.62934 0.34388 0.37066,1 0 0 0 0 0
0.70532 0.47242 0.29468 0.52758,1 0 0 0 0 0
0.6998 0.44568 0.3002 0.55432,1 0 0 0 0 0
0.76847 0.502 0.23153 0.498,1 0 0 0 0 0
0.5731 0.49148 0.4269 0.50852,1 0 0 0 0 0
0.59912 0.45734 0.40088 0.54266,1 0 0 0 0 0
0.72857 0.43485 0.27143 0.56515,1 0 0 0 0 0
0.72832 0.58067 0.27168 0.41933,1 0 0 0 0 0
0.6456 0.62459 0.3544 0.37541,1 0 0 0 0 0
0.71991 0.46534 0.28009 0.53466,1 0 0 0 0 0
0.64785 0.55582 0.35215 0.44418,1 0 0 0 0 0
0.72337 0.57394 0.27663 0.42606,1 0 0 0 0 0
0.73381 0.26413 0.26619 0.73587,1 0 0 0 0 0
0.79024 0.53125 0.20976 0.46875,1 0 0 0 0 0
0.65683 0.49367 0.34317 0.50633,1 0 0 0 0 0
0.62501 0.581 0.37499 0.419,1 0 0 0 0 0
0.73952 0.51915 0.26048 0.48085,1 0 0 0 0 0
0.6143 0.53637 0.3857 0.46363,1 0 0 0 0 0
0.73741 0.65491 0.26259 0.34509,1 0 0 0 0 0
0.5734 0.41127 0.4266 0.58873,1 0 0 0 0 0
0.69956 0.4933 0.30044 0.5067,1 0 0 0 0 0
0.78983 0.41353 0.21017 0.58647,1 0 0 0 0 0
0.75146 0.38667 0.24854 0.61333,1 0 0 0 0 0
0.70193 0.50727 0.29807 0.49273,1 0 0 0 0 0
0.86272 0.55568 0.13728 0.44432,1 0 0 0 0 0
0.73776 0.54183 0.26224 0.45817,1 0 0 0 0 0
0.82263 0.60299 0.17737 0.39701,1 0 0 0 0 0
0.65947 0.61451 0.34053 0.38549,1 0 0 0 0 0
0.68315 0.45385 0.31685 0.54615,1 0 0 0 0 0
0.83956 0.57178 0.16044 0.42822,1 0 0 0 0 0
0.73543 0.49987 0.26457 0.50013,1 0 0 0 0 0
0.54847 0.51794 0.45153 0.48206,1 0 0 0 0 0
0.79865 0.38865 0.20135 0.61135,1 0 0 0 0 0
0.77436 0.37388 0.22564 0.62612,1 0 0 0 0 0
0.56487 0.51569 0.43513 0.48431,1 0 0 0 0 0
0.70972 0.42704 0.29028 0.57296,1 0 0 0 0 0
0.75442 0.46982 0.24558 0.53018,1 0 0 0 0 0
0.57969 0.62672 0.42031 0.37328,1 0 0 0 0 0
0.70927 0.54847 0.29073 0.45153,1 0 0 0 0 0
0.73139 0.56426 0.26861 0.43574,1 0 0 0 0 0
0.7405 0.50966 0.2595 0.49034,1 0 0 0 0 0
0.70903 0.48604 0.29097 0.51396,1 0 0 0 0 0
0.62456 0.58169 0.37544 0.41831,1 0 0 0 0 0
0.66649 0.49393 0.33351 0.50607,1 0 0 0 0 0
0.77753 0.51838 0.22247 0.48162,1 0 0 0 0 0
0.69209 0.55481 0.30791 0.44519,1 0 0 0 0 0
0.77122 0.51802 0.22878 0.48198,1 0 0 0 0 0
0.75589 0.55706 0.24411 0.44294,1 0 0 0 0 0
0.76726 0.39605 0.23274 0.60395,1 0 0 0 0 0
0.74336 0.52052 0.25664 0.47948,1 0 0 0 0 0
0.72262 0.48937 0.27738 0.51063,1 0 0 0 0 0
0.72774 0.56221 0.27226 0.43779,1 0 0 0 0 0
0.69019 0.66896 0.30981 0.33104,1 0 0 0 0 0
0.8183 0.58435 0.1817 0.41565,1 0 0 0 0 0
0.77911 0.43388 0.22089 0.56612,1 0 0 0 0 0
0.74644 0.43631 0.25356 0.56369,1 0 0 0 0 0
0.5559 0.49535 0.4441 0.50465,1 0 0 0 0 0
0.72208 0.45297 0.27792 0.54703,1 0 0 0 0 0
0.72475 0.52973 0.27525 0.47027,1 0 0 0 0 0
0.78457 0.4893 0.21543 0.5107,1 0 0 0 0 0
0.72612 0.50458 0.27388 0.49542,1 0 0 0 0 0
0.65855 0.51963 0.34145 0.48037,1 0 0 0 0 0
0.70887 0.55342 0.29113 0.44658,1 0 0 0 0 0
0.77064 0.4502 0.22936 0.5498,1 0 0 0 0 0
0.6441 0.45866 0.3559 0.54134,1 0 0 0 0 0
0.73578 0.66223 0.26422 0.33777,1 0 0 0 0 0
0.54235 0.5139 0.45765 0.4861,1 0 0 0 0 0
0.66997 0.52707 0.33003 0.47293,1 0 0 0 0 0
0.7522 0.39913 0.2478 0.60087,1 0 0 0 0 0
0.69939 0.41062 0.30061 0.58938,1 0 0 0 0 0
0.70281 0.75645 0.29719 0.24355,1 0 0 0 0 0
0.64945 0.66605 0.35055 0.33395,1 0 0 0 0 0
0.63554 0.52354 0.36446 0.47646,1 0 0 0 0 0
0.69552 0.59727 0.30448 0.40273,1 0 0 0 0 0
0.74679 0.39819 0.25321 0.60181,1 0 0 0 0 0
0.72423 0.44402 0.27577 0.55598,1 0 0 0 0 0
0.67853 0.43488 0.32147 0.56512,1 0 0 0 0 0
0.7065 0.45918 0.2935 0.54082,1 0 0 0 0 0
0.72239 0.48829 0.27761 0.51171,1 0 0 0 0 0
0.72029 0.58469 0.27971 0.41531,1 0 0 0 0 0
0.71523 0.57738 0.28477 0.42262,1 0 0 0 0 0
0.65909 0.43342 0.34091 0.56658,1 0 0 0 0 0
0.70381 0.48528 0.29619 0.51472,1 0 0 0 0 0
0.76812 0.55664 0.23188 0.44336,1 0 0 0 0 0
0.531 0.56051 0.469 0.43949,0 1 0 0 0 0
0.57783 0.76449 0.42217 0.23551,0 1 0 0 0 0
0.67943 0.69972 0.32057 0.30028,0 1 0 0 0 0
0.56401 0.62797 0.43599 0.37203,0 1 0 0 0 0
0.62926 0.73821 0.37074 0.26179,0 1 0 0 0 0
0.56931 0.60219 0.43069 0.39781,0 1 0 0 0 0
0.53962 0.69465 0.46038 0.30535,0 1 0 0 0 0
0.56793 0.62153 0.43207 0.37847,0 1 0 0 0 0
0.52055 0.55405 0.47945 0.44595,0 1 0 0 0 0
0.5337 0.7306 0.4663 0.2694,0 1 0 0 0 0
0.65006 0.68172 0.34994 0.31828,0 1 0 0 0 0
0.5899 0.75449 0.4101 0.24551,0 1 0 0 0 0
0.49148 0.69313 0.50852 0.30687,0 1 0 0 0 0
0.69323 0.61206 0.30677 0.38794,0 1 0 0 0 0
0.54718 0.69554 0.45282 0.30446,0 1 0 0 0 0
0.62004 0.67541 0.37996 0.32459,0 1 0 0 0 0
0.60511 0.67563 0.39489 0.32437,0 1 0 0 0 0
0.65333 0.63763 0.34667 0.36237,0 1 0 0 0 0
0.66012 0.57182 0.33988 0.42818,0 1 0 0 0 0
0.71758 0.66839 0.28242 0.33161,0 1 0 0 0 0
0.50205 0.64465 0.49795 0.35535,0 1 0 0 0 0
0.58748 0.66681 0.41252 0.33319,0 1 0 0 0 0
0.6526 0.64281 0.3474 0.35719,0 1 0 0 0 0
0.60645 0.78803 0.39355 0.21197,0 1 0 0 0 0
0.60597 0.51604 0.39403 0.48396,0 1 0 0 0 0
0.64196 0.6818 0.35804 0.3182,0 1 0 0 0 0
0.52159 0.69506 0.47841 0.30494,0 1 0 0 0 0
0.64346 0.59183 0.35654 0.40817,0 1 0 0 0 0
0.68228 0.70826 0.31772 0.29174,0 1 0 0 0 0
0.58122 0.59924 0.41878 0.40076,0 1 0 0 0 0
0.64751 0.64116 0.35249 0.35884,0 1 0 0 0 0
0.68522 0.73027 0.31478 0.26973,0 1 0 0 0 0
0.61386 0.55484 0.38614 0.44516,0 1 0 0 0 0
0.47968 0.8773 0.52032 0.1227,0 1 0 0 0 0
0.62812 0.72227 0.37188 0.27773,0 1 0 0 0 0
0.57151 0.7068 0.42849 0.2932,0 1 0 0 0 0
0.54343 0.72059 0.45657 0.27941,0 1 0 0 0 0
0.53352 0.75356 0.46648 0.24644,0 1 0 0 0 0
0.49254 0.75819 0.50746 0.24181,0 1 0 0 0 0
0.69898 0.59094 0.30102 0.40906,0 1 0 0 0 0
0.55443 0.73097 0.44557 0.26903,0 1 0 0 0 0
0.63016 0.64381 0.36984 0.35619,0 1 0 0 0 0
0.64281 0.62532 0.35719 0.37468,0 1 0 0 0 0
0.39083 0.79842 0.60917 0.20158,0 1 0 0 0 0
0.46344 0.66114 0.53656 0.33886,0 1 0 0 0 0
0.64462 0.53383 0.35538 0.46617,0 1 0 0 0 0
0.62664 0.70629 0.37336 0.29371,0 1 0 0 0 0
0.68714 0.61708 0.31286 0.38292,0 1 0 0 0 0
0.66678 0.71448 0.33322 0.28552,0 1 0 0 0 0
0.62146 0.66542 0.37854 0.33458,0 1 0 0 0 0
0.65568 0.70314 0.34432 0.29686,0 1 0 0 0 0
0.51735 0.57623 0.48265 0.42377,0 1 0 0 0 0
0.65733 0.73172 0.34267 0.26828,0 1 0 0 0 0
0.56894 0.8075 0.43106 0.1925,0 1 0 0 0 0
0.65286 0.71571 0.34714 0.28429,0 1 0 0 0 0
0.67746 0.70877 0.32254 0.29123,0 1 0 0 0 0
0.71003 0.67504 0.28997 0.32496,0 1 0 0 0 0
0.59329 0.63833 0.40671 0.36167,0 1 0 0 0 0
0.70722 0.58049 0.29278 0.41951,0 1 0 0 0 0
0.74575 0.6522 0.25425 0.3478,0 1 0 0 0 0
0.53362 0.77678 0.46638 0.22322,0 1 0 0 0 0
0.58589 0.72837 0.41411 0.27163,0 1 0 0 0 0
0.72171 0.68942 0.27829 0.31058,0 1 0 0 0 0
0.53509 0.71495 0.46491 0.28505,0 1 0 0 0 0
0.55177 0.65313 0.44823 0.34687,0 1 0 0 0 0
0.598 0.6228 0.402 0.3772,0 1 0 0 0 0
0.65449 0.80397 0.34551 0.19603,0 1 0 0 0 0
0.49036 0.51561 0.50964 0.48439,0 1 0 0 0 0
0.5792 0.56509 0.4208 0.43491,0 1 0 0 0 0
0.56876 0.69808 0.43124 0.30192,0 1 0 0 0 0
0.57245 0.79294 0.42755 0.20706,0 1 0 0 0 0
0.63178 0.72671 0.36822 0.27329,0 1 0 0 0 0
0.61009 0.73683 0.38991 0.26317,0 1 0 0 0 0
0.55917 0.70613 0.44083 0.29387,0 1 0 0 0 0
0.63883 0.51124 0.36117 0.48876,0 1 0 0 0 0
0.61637 0.6793 0.38363 0.3207,0 1 0 0 0 0
0.57723 0.57597 0.42277 0.42403,0 1 0 0 0 0
0.59054 0.64212 0.40946 0.35788,0 1 0 0 0 0
0.50172 0.58287 0.49828 0.41713,0 1 0 0 0 0
0.63941 0.56775 0.36059 0.43225,0 1 0 0 0 0
0.49873 0.74012 0.50127 0.25988,0 1 0 0 0 0
0.69863 0.728 0.30137 0.272,0 1 0 0 0 0
0.58083 0.60288 0.41917 0.39712,0 1 0 0 0 0
0.65904 0.71892 0.34096 0.28108,0 1 0 0 0 0
0.34362 0.70578 0.65638 0.29422,0 0 1 0 0 0
0.36039 0.63278 0.63961 0.36722,0 0 1 0 0 0
0.35469 0.81325 0.64531 0.18675,0 0 1 0 0 0
0.31141 0.65061 0.68859 0.34939,0 0 1 0 0 0
0.40458 0.63368 0.59542 0.36632,0 0 1 0 0 0
0.24404 0.59882 0.75596 0.40118,0 0 1 0 0 0
0.39896 0.63577 0.60104 0.36423,0 0 1 0 0 0
0.44922 0.68372 0.55078 0.31628,0 0 1 0 0 0
0.38264 0.71059 0.61736 0.28941,0 0 1 0 0 0
0.36276 0.67028 0.63724 0.32972,0 0 1 0 0 0
0.32442 0.50454 0.67558 0.49546,0 0 1 0 0 0
0.39542 0.63377 0.60458 0.36623,0 0 1 0 0 0
0.37427 0.71084 0.62573 0.28916,0 0 1 0 0 0
0.47617 0.78119 0.52383 0.21881,0 0 1 0 0 0
0.32806 0.76672 0.67194 0.23328,0 0 1 0 0 0
0.48083 0.73697 0.51917 0.26303,0 0 1 0 0 0
0.39845 0.62957 0.60155 0.37043,0 0 1 0 0 0
0.48107 0.64917 0.51893 0.35083,0 0 1 0 0 0
0.49501 0.7107 0.50499 0.2893,0 0 1 0 0 0
0.42587 0.71806 0.57413 0.28194,0 0 1 0 0 0
0.25603 0.60419 0.74397 0.39581,0 0 1 0 0 0
0.48434 0.6005 0.51566 0.3995,0 0 1 0 0 0
0.31392 0.75821 0.68608 0.24179,0 0 1 0 0 0
0.44775 0.64316 0.55225 0.35684,0 0 1 0 0 0
0.29998 0.61163 0.70002 0.38837,0 0 1 0 0 0
0.25716 0.694 0.74284 0.306,0 0 1 0 0 0
0.51884 0.63465 0.48116 0.36535,0 0 1 0 0 0
0.55647 0.73364 0.44353 0.26636,0 0 1 0 0 0
0.39531 0.60676 0.60469 0.39324,0 0 1 0 0 0
0.33165 0.55809 0.66835 0.44191,0 0 1 0 0 0
0.40467 0.68572 0.59533 0.31428,0 0 1 0 0 0
0.39121 0.7203 0.60879 0.2797,0 0 1 0 0 0
0.5229 0.70434 0.4771 0.29566,0 0 1 0 0 0
0.3217 0.66158 0.6783 0.33842,0 0 1 0 0 0
0.5107 0.61284 0.4893 0.38716,0 0 1 0 0 0
0.3602 0.666 0.6398 0.334,0 0 1 0 0 0
0.4363 0.62059 0.5637 0.37941,0 0 1 0 0 0
0.44414 0.72013 0.55586 0.27987,0 0 1 0 0 0
0.4492 0.78594 0.5508 0.21406,0 0 1 0 0 0
0.36535 0.52635 0.63465 0.47365,0 0 1 0 0 0
0.44104 0.61852 0.55896 0.38148,0 0 1 0 0 0
0.44768 0.77012 0.55232 0.22988,0 0 1 0 0 0
0.49949 0.70251 0.50051 0.29749,0 0 1 0 0 0
0.32696 0.62815 0.67304 0.37185,0 0 1 0 0 0
0.35975 0.64128 0.64025 0.35872,0 0 1 0 0 0
0.23648 0.77066 0.76352 0.22934,0 0 1 0 0 0
0.41001 0.76417 0.58999 0.23583,0 0 1 0 0 0
0.3657 0.83287 0.6343 0.16713,0 0 1 0 0 0
0.33946 0.56602 0.66054 0.43398,0 0 1 0 0 0
0.43478 0.64593 0.56522 0.35407,0 0 1 0 0 0
0.39125 0.71717 0.60875 0.28283,0 0 1 0 0 0
0.43506 0.6364 0.56494 0.3636,0 0 1 0 0 0
0.33658 0.69267 0.66342 0.30733,0 0 1 0 0 0
0.43623 0.71484 0.56377 0.28516,0 0 1 0 0 0
0.46852 0.76897 0.53148 0.23103,0 0 1 0 0 0
0.37516 0.75931 0.62484 0.24069,0 0 1 0 0 0
0.41928 0.70102 0.58072 0.29898,0 0 1 0 0 0
0.35785 0.75423 0.64215 0.24577,0 0 1 0 0 0
0.26003 0.62724 0.73997 0.37276,0 0 1 0 0 0
0.30419 0.69956 0.69581 0.30044,0 0 1 0 0 0
0.406 0.61171 0.594 0.38829,0 0 1 0 0 0
0.42298 0.6755 0.57702 0.3245,0 0 1 0 0 0
0.4506 0.61521 0.5494 0.38479,0 0 1 0 0 0
0.38948 0.62832 0.61052 0.37168,0 0 1 0 0 0
0.37413 0.7936 0.62587 0.2064,0 0 1 0 0 0
0.3007 0.60926 0.6993 0.39074,0 0 1 0 0 0
0.31624 0.68079 0.68376 0.31921,0 0 1 0 0 0
0.33354 0.74046 0.66646 0.25954,0 0 1 0 0 0
0.43261 0.69249 0.56739 0.30751,0 0 1 0 0 0
0.52982 0.5916 0.47018 0.4084,0 0 1 0 0 0
0.36117 0.66961 0.63883 0.33039,0 0 1 0 0 0
0.45982 0.68691 0.54018 0.31309,0 0 1 0 0 0
0.38609 0.61443 0.61391 0.38557,0 0 1 0 0 0
0.45804 0.65257 0.54196 0.34743,0 0 1 0 0 0
0.35762 0.77662 0.64238 0.22338,0 0 1 0 0 0
0.25002 0.78224 0.74998 0.21776,0 0 1 0 0 0
0.57881 0.68205 0.42119 0.31795,0 0 1 0 0 0
0.39691 0.77384 0.60309 0.22616,0 0 1 0 0 0
0.4326 0.68024 0.5674 0.31976,0 0 1 0 0 0
0.41922 0.59742 0.58078 0.40258,0 0 1 0 0 0
0.308 0.73434 0.692 0.26566,0 0 1 0 0 0
0.4435 0.64465 0.5565 0.35535,0 0 1 0 0 0
0.48662 0.75507 0.51338 0.24493,0 0 1 0 0 0
0.38579 0.61958 0.61421 0.38042,0 0 1 0 0 0
0.15148 0.60748 0.84852 0.39252,0 0 0 1 0 0
0.32453 0.52935 0.67547 0.47065,0 0 0 1 0 0
0.25755 0.58618 0.74245 0.41382,0 0 0 1 0 0
0.24461 0.59285 0.75539 0.40715,0 0 0 1 0 0
0.31279 0.46886 0.68721 0.53114,0 0 0 1 0 0
0.29262 0.6096 0.70738 0.3904,0 0 0 1 0 0
0.20035 0.56359 0.79965 0.43641,0 0 0 1 0 0
0.41028 0.45549 0.58972 0.54451,0 0 0 1 0 0
0.27087 0.46898 0.72913 0.53102,0 0 0 1 0 0
0.22326 0.48916 0.77674 0.51084,0 0 0 1 0 0
0.27835 0.62833 0.72165 0.37167,0 0 0 1 0 0
0.21336 0.4379 0.78664 0.5621,0 0 0 1 0 0
0.20693 0.49792 0.79307 0.50208,0 0 0 1 0 0
0.25631 0.49953 0.74369 0.50047,0 0 0 1 0 0
0.18953 0.58253 0.81047 0.41747,0 0 0 1 0 0
0.31625 0.47891 0.68375 0.52109,0 0 0 1 0 0
0.31823 0.5803 0.68177 0.4197,0 0 0 1 0 0
0.28617 0.54543 0.71383 0.45457,0 0 0 1 0 0
0.37496 0.61009 0.62504 0.38991,0 0 0 1 0 0
0.23768 0.3944 0.76232 0.6056,0 0 0 1 0 0
0.3668 0.42384 0.6332 0.57616,0 0 0 1 0 0
0.21927 0.58808 0.78073 0.41192,0 0 0 1 0 0
0.34437 0.53045 0.65563 0.46955,0 0 0 1 0 0
0.33688 0.49372 0.66312 0.50628,0 0 0 1 0 0
0.36372 0.55362 0.63628 0.44638,0 0 0 1 0 0
0.47843 0.49668 0.52157 0.50332,0 0 0 1 0 0
0.32205 0.59489 0.67795 0.40511,0 0 0 1 0 0
0.2822 0.56182 0.7178 0.43818,0 0 0 1 0 0
0.17797 0.45811 0.82203 0.54189,0 0 0 1 0 0
0.3969 0.54087 0.6031 0.45913,0 0 0 1 0 0
0.25762 0.6269 0.74238 0.3731,0 0 0 1 0 0
0.31063 0.63531 0.68937 0.36469,0 0 0 1 0 0
0.3344 0.45382 0.6656 0.54618,0 0 0 1 0 0
0.4073 0.4107 0.5927 0.5893,0 0 0 1 0 0
0.3136 0.43731 0.6864 0.56269,0 0 0 1 0 0
0.2901 0.50795 0.7099 0.49205,0 0 0 1 0 0
0.22982 0.44034 0.77018 0.55966,0 0 0 1 0 0
0.26531 0.51528 0.73469 0.48472,0 0 0 1 0 0
0.20024 0.32624 0.79976 0.67376,0 0 0 1 0 0
0.2002 0.51004 0.7998 0.48996,0 0 0 1 0 0
0.27698 0.46736 0.72302 0.53264,0 0 0 1 0 0
0.16056 0.4094 0.83944 0.5906,0 0 0 1 0 0
0.23463 0.56589 0.76537 0.43411,0 0 0 1 0 0
0.31557 0.61256 0.68443 0.38744,0 0 0 1 0 0
0.31429 0.60034 0.68571 0.39966,0 0 0 1 0 0
0.37015 0.5242 0.62985 0.4758,0 0 0 1 0 0
0.31227 0.46807 0.68773 0.53193,0 0 0 1 0 0
0.18888 0.49889 0.81112 0.50111,0 0 0 1 0 0
0.30513 0.43777 0.69487 0.56223,0 0 0 1 0 0
0.3733 0.40787 0.6267 0.59213,0 0 0 1 0 0
0.29229 0.50533 0.70771 0.49467,0 0 0 1 0 0
0.20222 0.44777 0.79778 0.55223,0 0 0 1 0 0
0.32894 0.56356 0.67106 0.43644,0 0 0 1 0 0
0.34153 0.52737 0.65847 0.47263,0 0 0 1 0 0
0.37456 0.55339 0.62544 0.44661,0 0 0 1 0 0
0.27033 0.53049 0.72967 0.46951,0 0 0 1 0 0
0.3675 0.5047 0.6325 0.4953,0 0 0 1 0 0
0.32723 0.5612 0.67277 0.4388,0 0 0 1 0 0
0.33658 0.34817 0.66342 0.65183,0 0 0 1 0 0
0.34374 0.50793 0.65626 0.49207,0 0 0 1 0 0
0.21404 0.35908 0.78596 0.64092,0 0 0 1 0 0
0.28165 0.49083 0.71835 0.50917,0 0 0 1 0 0
0.25371 0.51939 0.74629 0.48061,0 0 0 1 0 0
0.28724 0.43369 0.71276 0.56631,0 0 0 1 0 0
0.38202 0.54773 0.61798 0.45227,0 0 0 1 0 0
0.32544 0.42644 0.67456 0.57356,0 0 0 1 0 0
0.34018 0.45585 0.65982 0.54415,0 0 0 1 0 0
0.32911 0.5467 0.67089 0.4533,0 0 0 1 0 0
0.22842 0.44133 0.77158 0.55867,0 0 0 1 0 0
0.31568 0.61156 0.68432 0.38844,0 0 0 1 0 0
0.29558 0.60842 0.70442 0.39158,0 0 0 1 0 0
0.32771 0.57096 0.67229 0.42904,0 0 0 1 0 0
0.35197 0.54751 0.64803 0.45249,0 0 0 1 0 0
0.41476 0.36098 0.58524 0.63902,0 0 0 1 0 0
0.23503 0.58095 0.76497 0.41905,0 0 0 1 0 0
0.24938 0.44016 0.75062 0.55984,0 0 0 1 0 0
0.39173 0.44193 0.60827 0.55807,0 0 0 1 0 0
0.21667 0.44269 0.78333 0.55731,0 0 0 1 0 0
0.37103 0.49096 0.62897 0.50904,0 0 0 1 0 0
0.21683 0.58131 0.78317 0.41869,0 0 0 1 0 0
0.34652 0.59995 0.65348 0.40005,0 0 0 1 0 0
0.20683 0.44152 0.79317 0.55848,0 0 0 1 0 0
0.29326 0.34014 0.70674 0.65986,0 0 0 1 0 0
0.32629 0.51986 0.67371 0.48014,0 0 0 1 0 0
0.35391 0.29388 0.64609 0.70612,0 0 0 0 1 0
0.42287 0.38867 0.57713 0.61133,0 0 0 0 1 0
0.57989 0.26412 0.42011 0.73588,0 0 0 0 1 0
0.43132 0.35079 0.56868 0.64921,0 0 0 0 1 0
0.37359 0.19159 0.62641 0.80841,0 0 0 0 1 0
0.45417 0.21709 0.54583 0.78291,0 0 0 0 1 0
0.4355 0.29676 0.5645 0.70324,0 0 0 0 1 0
0.4686 0.26056 0.5314 0.73944,0 0 0 0 1 0
0.41951 0.45871 0.58049 0.54129,0 0 0 0 1 0
0.44367 0.35634 0.55633 0.64366,0 0 0 0 1 0
0.23563 0.3611 0.76437 0.6389,0 0 0 0 1 0
0.44759 0.33316 0.55241 0.66684,0 0 0 0 1 0
0.47995 0.26406 0.52005 0.73594,0 0 0 0 1 0
0.49684 0.33676 0.50316 0.66324,0 0 0 0 1 0
0.49841 0.28256 0.50159 0.71744,0 0 0 0 1 0
0.38288 0.32591 0.61712 0.67409,0 0 0 0 1 0
0.46933 0.38866 0.53067 0.61134,0 0 0 0 1 0
0.41176 0.19111 0.58824 0.80889,0 0 0 0 1 0
0.49472 0.2702 0.50528 0.7298,0 0 0 0 1 0
0.31744 0.48252 0.68256 0.51748,0 0 0 0 1 0
0.34415 0.16135 0.65585 0.83865,0 0 0 0 1 0
0.41092 0.40198 0.58908 0.59802,0 0 0 0 1 0
0.38459 0.2967 0.61541 0.7033,0 0 0 0 1 0
0.41645 0.35639 0.58355 0.64361,0 0 0 0 1 0
0.35099 0.41428 0.64901 0.58572,0 0 0 0 1 0
0.31314 0.20937 0.68686 0.79063,0 0 0 0 1 0
0.43315 0.28628 0.56685 0.71372,0 0 0 0 1 0
0.42513 0.27657 0.57487 0.72343,0 0 0 0 1 0
0.48731 0.43373 0.51269 0.56627,0 0 0 0 1 0
0.26328 0.41196 0.73672 0.58804,0 0 0 0 1 0
0.40518 0.2504 0.59482 0.7496,0 0 0 0 1 0
0.44736 0.33884 0.55264 0.66116,0 0 0 0 1 0
0.36119 0.26961 0.63881 0.73039,0 0 0 0 1 0
0.3907 0.17535 0.6093 0.82465,0 0 0 0 1 0
0.39123 0.43314 0.60877 0.56686,0 0 0 0 1 0
0.33959 0.3103 0.66041 0.6897,0 0 0 0 1 0
0.49066 0.22444 0.50934 0.77556,0 0 0 0 1 0
0.46644 0.38228 0.53356 0.61772,0 0 0 0 1 0
0.3528 0.42712 0.6472 0.57288,0 0 0 0 1 0
0.40031 0.28352 0.59969 0.71648,0 0 0 0 1 0
0.46274 0.54066 0.53726 0.45934,0 0 0 0 1 0
0.32054 0.3781 0.67946 0.6219,0 0 0 0 1 0
0.36862 0.35028 0.63138 0.64972,0 0 0 0 1 0
0.34416 0.29588 0.65584 0.70412,0 0 0 0 1 0
0.34976 0.30634 0.65024 0.69366,0 0 0 0 1 0
0.5253 0.23181 0.4747 0.76819,0 0 0 0 1 0
0.24802 0.32516 0.75198 0.67484,0 0 0 0 1 0
0.16447 0.32036 0.83553 0.67964,0 0 0 0 1 0
0.30201 0.34205 0.69799 0.65795,0 0 0 0 1 0
0.301 0.36991 0.699 0.63009,0 0 0 0 1 0
0.38322 0.21953 0.61678 0.78047,0 0 0 0 1 0
0.29621 0.17632 0.70379 0.82368,0 0 0 0 1 0
0.3042 0.2979 0.6958 0.7021,0 0 0 0 1 0
0.45161 0.33005 0.54839 0.66995,0 0 0 0 1 0
0.42925 0.45678 0.57075 0.54322,0 0 0 0 1 0
0.46061 0.33077 0.53939 0.66923,0 0 0 0 1 0
0.45926 0.32449 0.54074 0.67551,0 0 0 0 1 0
0.40845 0.37074 0.59155 0.62926,0 0 0 0 1 0
0.4681 0.37988 0.5319 0.62012,0 0 0 0 1 0
0.26413 0.35344 0.73587 0.64656,0 0 0 0 1 0
0.49203 0.27486 0.50797 0.72514,0 0 0 0 1 0
0.47836 0.37316 0.52164 0.62684,0 0 0 0 1 0
0.37176 0.278 0.62824 0.722,0 0 0 0 1 0
0.3898 0.45618 0.6102 0.54382,0 0 0 0 1 0
0.42872 0.28778 0.57128 0.71222,0 0 0 0 1 0
0.40632 0.315 0.59368 0.685,0 0 0 0 1 0
0.33523 0.30085 0.66477 0.69915,0 0 0 0 1 0
0.25179 0.35705 0.74821 0.64295,0 0 0 0 1 0
0.37737 0.32511 0.62263 0.67489,0 0 0 0 1 0
0.23732 0.42079 0.76268 0.57921,0 0 0 0 1 0
0.32705 0.25417 0.67295 0.74583,0 0 0 0 1 0
0.35639 0.21876 0.64361 0.78124,0 0 0 0 1 0
0.34171 0.3926 0.65829 0.6074,0 0 0 0 1 0
0.45654 0.36504 0.54346 0.63496,0 0 0 0 1 0
0.40262 0.40729 0.59738 0.59271,0 0 0 0 1 0
0.26327 0.27148 0.73673 0.72852,0 0 0 0 1 0
0.39492 0.38497 0.60508 0.61503,0 0 0 0 1 0
0.47271 0.25873 0.52729 0.74127,0 0 0 0 1 0
0.41545 0.29098 0.58455 0.70902,0 0 0 0 1 0
0.37609 0.24441 0.62391 0.75559,0 0 0 0 1 0
0.27701 0.26482 0.72299 0.73518,0 0 0 0 1 0
0.41853 0.27969 0.58147 0.72031,0 0 0 0 1 0
0.35503 0.34208 0.64497 0.65792,0 0 0 0 1 0
0.63933 0.2697 0.36067 0.7303,0 0 0 0 1 0
0.59243 0.18461 0.40757 0.81539,0 0 0 0 0 1
0.66402 0.29559 0.33598 0.70441,0 0 0 0 0 1
0.5215 0.26509 0.4785 0.73491,0 0 0 0 0 1
0.64083 0.34116 0.35917 0.65884,0 0 0 0 0 1
0.61416 0.32758 0.38584 0.67242,0 0 0 0 0 1
0.67362 0.29271 0.32638 0.70729,0 0 0 0 0 1
0.61408 0.22493 0.38592 0.77507,0 0 0 0 0 1
0.59387 0.31074 0.40613 0.68926,0 0 0 0 0 1
0.6579 0.25103 0.3421 0.74897,0 0 0 0 0 1
0.72398 0.48286 0.27602 0.51714,0 0 0 0 0 1
0.58105 0.25002 0.41895 0.74998,0 0 0 0 0 1
0.63598 0.41839 0.36402 0.58161,0 0 0 0 0 1
0.58964 0.2676 0.41036 0.7324,0 0 0 0 0 1
0.68395 0.4645 0.31605 0.5355,0 0 0 0 0 1
0.73786 0.25336 0.26214 0.74664,0 0 0 0 0 1
0.45969 0.24816 0.54031 0.75184,0 0 0 0 0 1
0.55566 0.34168 0.44434 0.65832,0 0 0 0 0 1
0.53835 0.31344 0.46165 0.68656,0 0 0 0 0 1
0.75884 0.48877 0.24116 0.51123,0 0 0 0 0 1
0.70486 0.43567 0.29514 0.56433,0 0 0 0 0 1
0.59816 0.40539 0.40184 0.59461,0 0 0 0 0 1
0.63564 0.2959 0.36436 0.7041,0 0 0 0 0 1
0.54052 0.34986 0.45948 0.65014,0 0 0 0 0 1
0.45714 0.47841 0.54286 0.52159,0 0 0 0 0 1
0.67523 0.31293 0.32477 0.68707,0 0 0 0 0 1
0.69752 0.32855 0.30248 0.67145,0 0 0 0 0 1
0.66098 0.44027 0.33902 0.55973,0 0 0 0 0 1
0.49176 0.22616 0.50824 0.77384,0 0 0 0 0 1
0.56358 0.22857 0.43642 0.77143,0 0 0 0 0 1
0.6745 0.23501 0.3255 0.76499,0 0 0 0 0 1
0.54151 0.27461 0.45849 0.72539,0 0 0 0 0 1
0.64408 0.24235 0.35592 0.75765,0 0 0 0 0 1
0.62666 0.26946 0.37334 0.73054,0 0 0 0 0 1
0.71315 0.39117 0.28685 0.60883,0 0 0 0 0 1
0.75236 0.26393 0.24764 0.73607,0 0 0 0 0 1
0.68558 0.31879 0.31442 0.68121,0 0 0 0 0 1
0.52924 0.39417 0.47076 0.60583,0 0 0 0 0 1
0.51684 0.40693 0.48316 0.59307,0 0 0 0 0 1
0.58902 0.24459 0.41098 0.75541,0 0 0 0 0 1
0.55905 0.35509 0.44095 0.64491,0 0 0 0 0 1
0.51717 0.35109 0.48283 0.64891,0 0 0 0 0 1
0.71535 0.27192 0.28465 0.72808,0 0 0 0 0 1
0.63367 0.35694 0.36633 0.64306,0 0 0 0 0 1
0.59524 0.20829 0.40476 0.79171,0 0 0 0 0 1
0.5638 0.30283 0.4362 0.69717,0 0 0 0 0 1
0.62986 0.34733 0.37014 0.65267,0 0 0 0 0 1
0.68147 0.37828 0.31853 0.62172,0 0 0 0 0 1
0.61904 0.19746 0.38096 0.80254,0 0 0 0 0 1
0.5306 0.39404 0.4694 0.60596,0 0 0 0 0 1
0.72203 0.22025 0.27797 0.77975,0 0 0 0 0 1
0.57044 0.23826 0.42956 0.76174,0 0 0 0 0 1
0.49048 0.35214 0.50952 0.64786,0 0 0 0 0 1
0.61337 0.35819 0.38663 0.64181,0 0 0 0 0 1
0.66874 0.37811 0.33126 0.62189,0 0 0 0 0 1
0.55711 0.32104 0.44289 0.67896,0 0 0 0 0 1
0.53909 0.28573 0.46091 0.71427,0 0 0 0 0 1
0.53178 0.38013 0.46822 0.61987,0 0 0 0 0 1
0.59778 0.29585 0.40222 0.70415,0 0 0 0 0 1
0.66806 0.3863 0.33194 0.6137,0 0 0 0 0 1
0.53873 0.42684 0.46127 0.57316,0 0 0 0 0 1
0.48917 0.28539 0.51083 0.71461,0 0 0 0 0 1
0.59037 0.29085 0.40963 0.70915,0 0 0 0 0 1
0.57803 0.41441 0.42197 0.58559,0 0 0 0 0 1
0.48183 0.31569 0.51817 0.68431,0 0 0 0 0 1
0.60933 0.31506 0.39067 0.68494,0 0 0 0 0 1
0.54004 0.27653 0.45996 0.72347,0 0 0 0 0 1
0.71986 0.27651 0.28014 0.72349,0 0 0 0 0 1
0.58459 0.47219 0.41541 0.52781,0 0 0 0 0 1
0.65161 0.30097 0.34839 0.69903,0 0 0 0 0 1
0.60287 0.27708 0.39713 0.72292,0 0 0 0 0 1
0.59714 0.41868 0.40286 0.58132,0 0 0 0 0 1
0.66905 0.23208 0.33095 0.76792,0 0 0 0 0 1
0.61425 0.24441 0.38575 0.75559,0 0 0 0 0 1
0.59432 0.40042 0.40568 0.59958,0 0 0 0 0 1
0.71924 0.2869 0.28076 0.7131,0 0 0 0 0 1
0.55354 0.32006 0.44646 0.67994,0 0 0 0 0 1
0.72654 0.41561 0.27346 0.58439,0 0 0 0 0 1
0.73003 0.36479 0.26997 0.63521,0 0 0 0 0 1
0.71759 0.24954 0.28241 0.75046,0 0 0 0 0 1
0.63593 0.36652 0.36407 0.63348,0 0 0 0 0 1
0.60762 0.31595 0.39238 0.68405,0 0 0 0 0 1
0.58209 0.36628 0.41791 0.63372,0 0 0 0 0 1
0.56418 0.44289 0.43582 0.55711,0 0 0 0 0 1
0.64738 0.39365 0.35262 0.60635,0 0 0 0 0 1
